src/pulse.vcd
$date
  Fri May 28 00:01:21 2021
$end
$version
  GHDL v0
$end
$timescale
  1 fs
$end
$scope module standard $end
$upscope $end
$scope module std_logic_1164 $end
$upscope $end
$scope module numeric_std $end
$upscope $end
$scope module pulse_gen_tb $end
$var reg 1 ! clk $end
$var reg 1 " output $end
$var reg 14 # length[13:0] $end
$var reg 14 $ delay[13:0] $end
$var reg 1 % send $end
$var reg 1 & stop $end
$var reg 1 ' resp $end
$scope module pulsegen_inst $end
$var reg 1 ( clk $end
$var reg 1 ) output $end
$var reg 14 * length[13:0] $end
$var reg 14 + delay[13:0] $end
$var reg 1 , send $end
$var reg 1 - stop $end
$var reg 1 . resp $end
$var reg 14 / length_out[13:0] $end
$var reg 14 0 delay_out[13:0] $end
$comment state is not handled $end
$upscope $end
$upscope $end
$enddefinitions $end
#0
0!
0"
b00000011111111 #
b00000011111111 $
1%
0&
U'
0(
0)
b00000011111111 *
b00000011111111 +
1,
0-
U.
b00000000000000 /
b00000000000000 0
#250000000
1!
0'
1(
0.
#500000000
0!
0(
#510000000
0%
0,
#750000000
1!
1"
1(
1)
b00000000000001 /
#1000000000
0!
0(
#1250000000
1!
1(
b00000000000010 /
#1500000000
0!
0(
#1750000000
1!
1(
b00000000000011 /
#2000000000
0!
0(
#2250000000
1!
1(
b00000000000100 /
#2500000000
0!
0(
#2750000000
1!
1(
b00000000000101 /
#3000000000
0!
0(
#3250000000
1!
1(
b00000000000110 /
#3500000000
0!
0(
#3750000000
1!
1(
b00000000000111 /
#4000000000
0!
0(
#4250000000
1!
1(
b00000000001000 /
#4500000000
0!
0(
#4750000000
1!
1(
b00000000001001 /
#5000000000
0!
0(
#5250000000
1!
1(
b00000000001010 /
#5500000000
0!
0(
#5750000000
1!
1(
b00000000001011 /
#6000000000
0!
0(
#6250000000
1!
1(
b00000000001100 /
#6500000000
0!
0(
#6750000000
1!
1(
b00000000001101 /
#7000000000
0!
0(
#7250000000
1!
1(
b00000000001110 /
#7500000000
0!
0(
#7750000000
1!
1(
b00000000001111 /
#8000000000
0!
0(
#8250000000
1!
1(
b00000000010000 /
#8500000000
0!
0(
#8750000000
1!
1(
b00000000010001 /
#9000000000
0!
0(
#9250000000
1!
1(
b00000000010010 /
#9500000000
0!
0(
#9750000000
1!
1(
b00000000010011 /
#10000000000
0!
0(
#10250000000
1!
1(
b00000000010100 /
#10500000000
0!
0(
#10750000000
1!
1(
b00000000010101 /
#11000000000
0!
0(
#11250000000
1!
1(
b00000000010110 /
#11500000000
0!
0(
#11750000000
1!
1(
b00000000010111 /
#12000000000
0!
0(
#12250000000
1!
1(
b00000000011000 /
#12500000000
0!
0(
#12750000000
1!
1(
b00000000011001 /
#13000000000
0!
0(
#13250000000
1!
1(
b00000000011010 /
#13500000000
0!
0(
#13750000000
1!
1(
b00000000011011 /
#14000000000
0!
0(
#14250000000
1!
1(
b00000000011100 /
#14500000000
0!
0(
#14750000000
1!
1(
b00000000011101 /
#15000000000
0!
0(
#15250000000
1!
1(
b00000000011110 /
#15500000000
0!
0(
#15750000000
1!
1(
b00000000011111 /
#16000000000
0!
0(
#16250000000
1!
1(
b00000000100000 /
#16500000000
0!
0(
#16750000000
1!
1(
b00000000100001 /
#17000000000
0!
0(
#17250000000
1!
1(
b00000000100010 /
#17500000000
0!
0(
#17750000000
1!
1(
b00000000100011 /
#18000000000
0!
0(
#18250000000
1!
1(
b00000000100100 /
#18500000000
0!
0(
#18750000000
1!
1(
b00000000100101 /
#19000000000
0!
0(
#19250000000
1!
1(
b00000000100110 /
#19500000000
0!
0(
#19750000000
1!
1(
b00000000100111 /
#20000000000
0!
0(
#20250000000
1!
1(
b00000000101000 /
#20500000000
0!
0(
#20750000000
1!
1(
b00000000101001 /
#21000000000
0!
0(
#21250000000
1!
1(
b00000000101010 /
#21500000000
0!
0(
#21750000000
1!
1(
b00000000101011 /
#22000000000
0!
0(
#22250000000
1!
1(
b00000000101100 /
#22500000000
0!
0(
#22750000000
1!
1(
b00000000101101 /
#23000000000
0!
0(
#23250000000
1!
1(
b00000000101110 /
#23500000000
0!
0(
#23750000000
1!
1(
b00000000101111 /
#24000000000
0!
0(
#24250000000
1!
1(
b00000000110000 /
#24500000000
0!
0(
#24750000000
1!
1(
b00000000110001 /
#25000000000
0!
0(
#25250000000
1!
1(
b00000000110010 /
#25500000000
0!
0(
#25750000000
1!
1(
b00000000110011 /
#26000000000
0!
0(
#26250000000
1!
1(
b00000000110100 /
#26500000000
0!
0(
#26750000000
1!
1(
b00000000110101 /
#27000000000
0!
0(
#27250000000
1!
1(
b00000000110110 /
#27500000000
0!
0(
#27750000000
1!
1(
b00000000110111 /
#28000000000
0!
0(
#28250000000
1!
1(
b00000000111000 /
#28500000000
0!
0(
#28750000000
1!
1(
b00000000111001 /
#29000000000
0!
0(
#29250000000
1!
1(
b00000000111010 /
#29500000000
0!
0(
#29750000000
1!
1(
b00000000111011 /
#30000000000
0!
0(
#30250000000
1!
1(
b00000000111100 /
#30500000000
0!
0(
#30750000000
1!
1(
b00000000111101 /
#31000000000
0!
0(
#31250000000
1!
1(
b00000000111110 /
#31500000000
0!
0(
#31750000000
1!
1(
b00000000111111 /
#32000000000
0!
0(
#32250000000
1!
1(
b00000001000000 /
#32500000000
0!
0(
#32750000000
1!
1(
b00000001000001 /
#33000000000
0!
0(
#33250000000
1!
1(
b00000001000010 /
#33500000000
0!
0(
#33750000000
1!
1(
b00000001000011 /
#34000000000
0!
0(
#34250000000
1!
1(
b00000001000100 /
#34500000000
0!
0(
#34750000000
1!
1(
b00000001000101 /
#35000000000
0!
0(
#35250000000
1!
1(
b00000001000110 /
#35500000000
0!
0(
#35750000000
1!
1(
b00000001000111 /
#36000000000
0!
0(
#36250000000
1!
1(
b00000001001000 /
#36500000000
0!
0(
#36750000000
1!
1(
b00000001001001 /
#37000000000
0!
0(
#37250000000
1!
1(
b00000001001010 /
#37500000000
0!
0(
#37750000000
1!
1(
b00000001001011 /
#38000000000
0!
0(
#38250000000
1!
1(
b00000001001100 /
#38500000000
0!
0(
#38750000000
1!
1(
b00000001001101 /
#39000000000
0!
0(
#39250000000
1!
1(
b00000001001110 /
#39500000000
0!
0(
#39750000000
1!
1(
b00000001001111 /
#40000000000
0!
0(
#40250000000
1!
1(
b00000001010000 /
#40500000000
0!
0(
#40750000000
1!
1(
b00000001010001 /
#41000000000
0!
0(
#41250000000
1!
1(
b00000001010010 /
#41500000000
0!
0(
#41750000000
1!
1(
b00000001010011 /
#42000000000
0!
0(
#42250000000
1!
1(
b00000001010100 /
#42500000000
0!
0(
#42750000000
1!
1(
b00000001010101 /
#43000000000
0!
0(
#43250000000
1!
1(
b00000001010110 /
#43500000000
0!
0(
#43750000000
1!
1(
b00000001010111 /
#44000000000
0!
0(
#44250000000
1!
1(
b00000001011000 /
#44500000000
0!
0(
#44750000000
1!
1(
b00000001011001 /
#45000000000
0!
0(
#45250000000
1!
1(
b00000001011010 /
#45500000000
0!
0(
#45750000000
1!
1(
b00000001011011 /
#46000000000
0!
0(
#46250000000
1!
1(
b00000001011100 /
#46500000000
0!
0(
#46750000000
1!
1(
b00000001011101 /
#47000000000
0!
0(
#47250000000
1!
1(
b00000001011110 /
#47500000000
0!
0(
#47750000000
1!
1(
b00000001011111 /
#48000000000
0!
0(
#48250000000
1!
1(
b00000001100000 /
#48500000000
0!
0(
#48750000000
1!
1(
b00000001100001 /
#49000000000
0!
0(
#49250000000
1!
1(
b00000001100010 /
#49500000000
0!
0(
#49750000000
1!
1(
b00000001100011 /
#50000000000
0!
0(
#50250000000
1!
1(
b00000001100100 /
#50500000000
0!
0(
#50750000000
1!
1(
b00000001100101 /
#51000000000
0!
0(
#51250000000
1!
1(
b00000001100110 /
#51500000000
0!
0(
#51750000000
1!
1(
b00000001100111 /
#52000000000
0!
0(
#52250000000
1!
1(
b00000001101000 /
#52500000000
0!
0(
#52750000000
1!
1(
b00000001101001 /
#53000000000
0!
0(
#53250000000
1!
1(
b00000001101010 /
#53500000000
0!
0(
#53750000000
1!
1(
b00000001101011 /
#54000000000
0!
0(
#54250000000
1!
1(
b00000001101100 /
#54500000000
0!
0(
#54750000000
1!
1(
b00000001101101 /
#55000000000
0!
0(
#55250000000
1!
1(
b00000001101110 /
#55500000000
0!
0(
#55750000000
1!
1(
b00000001101111 /
#56000000000
0!
0(
#56250000000
1!
1(
b00000001110000 /
#56500000000
0!
0(
#56750000000
1!
1(
b00000001110001 /
#57000000000
0!
0(
#57250000000
1!
1(
b00000001110010 /
#57500000000
0!
0(
#57750000000
1!
1(
b00000001110011 /
#58000000000
0!
0(
#58250000000
1!
1(
b00000001110100 /
#58500000000
0!
0(
#58750000000
1!
1(
b00000001110101 /
#59000000000
0!
0(
#59250000000
1!
1(
b00000001110110 /
#59500000000
0!
0(
#59750000000
1!
1(
b00000001110111 /
#60000000000
0!
0(
#60250000000
1!
1(
b00000001111000 /
#60500000000
0!
0(
#60750000000
1!
1(
b00000001111001 /
#61000000000
0!
0(
#61250000000
1!
1(
b00000001111010 /
#61500000000
0!
0(
#61750000000
1!
1(
b00000001111011 /
#62000000000
0!
0(
#62250000000
1!
1(
b00000001111100 /
#62500000000
0!
0(
#62750000000
1!
1(
b00000001111101 /
#63000000000
0!
0(
#63250000000
1!
1(
b00000001111110 /
#63500000000
0!
0(
#63750000000
1!
1(
b00000001111111 /
#64000000000
0!
0(
#64250000000
1!
1(
b00000010000000 /
#64500000000
0!
0(
#64750000000
1!
1(
b00000010000001 /
#65000000000
0!
0(
#65250000000
1!
1(
b00000010000010 /
#65500000000
0!
0(
#65750000000
1!
1(
b00000010000011 /
#66000000000
0!
0(
#66250000000
1!
1(
b00000010000100 /
#66500000000
0!
0(
#66750000000
1!
1(
b00000010000101 /
#67000000000
0!
0(
#67250000000
1!
1(
b00000010000110 /
#67500000000
0!
0(
#67750000000
1!
1(
b00000010000111 /
#68000000000
0!
0(
#68250000000
1!
1(
b00000010001000 /
#68500000000
0!
0(
#68750000000
1!
1(
b00000010001001 /
#69000000000
0!
0(
#69250000000
1!
1(
b00000010001010 /
#69500000000
0!
0(
#69750000000
1!
1(
b00000010001011 /
#70000000000
0!
0(
#70250000000
1!
1(
b00000010001100 /
#70500000000
0!
0(
#70750000000
1!
1(
b00000010001101 /
#71000000000
0!
0(
#71250000000
1!
1(
b00000010001110 /
#71500000000
0!
0(
#71750000000
1!
1(
b00000010001111 /
#72000000000
0!
0(
#72250000000
1!
1(
b00000010010000 /
#72500000000
0!
0(
#72750000000
1!
1(
b00000010010001 /
#73000000000
0!
0(
#73250000000
1!
1(
b00000010010010 /
#73500000000
0!
0(
#73750000000
1!
1(
b00000010010011 /
#74000000000
0!
0(
#74250000000
1!
1(
b00000010010100 /
#74500000000
0!
0(
#74750000000
1!
1(
b00000010010101 /
#75000000000
0!
0(
#75250000000
1!
1(
b00000010010110 /
#75500000000
0!
0(
#75750000000
1!
1(
b00000010010111 /
#76000000000
0!
0(
#76250000000
1!
1(
b00000010011000 /
#76500000000
0!
0(
#76750000000
1!
1(
b00000010011001 /
#77000000000
0!
0(
#77250000000
1!
1(
b00000010011010 /
#77500000000
0!
0(
#77750000000
1!
1(
b00000010011011 /
#78000000000
0!
0(
#78250000000
1!
1(
b00000010011100 /
#78500000000
0!
0(
#78750000000
1!
1(
b00000010011101 /
#79000000000
0!
0(
#79250000000
1!
1(
b00000010011110 /
#79500000000
0!
0(
#79750000000
1!
1(
b00000010011111 /
#80000000000
0!
0(
#80250000000
1!
1(
b00000010100000 /
#80500000000
0!
0(
#80750000000
1!
1(
b00000010100001 /
#81000000000
0!
0(
#81250000000
1!
1(
b00000010100010 /
#81500000000
0!
0(
#81750000000
1!
1(
b00000010100011 /
#82000000000
0!
0(
#82250000000
1!
1(
b00000010100100 /
#82500000000
0!
0(
#82750000000
1!
1(
b00000010100101 /
#83000000000
0!
0(
#83250000000
1!
1(
b00000010100110 /
#83500000000
0!
0(
#83750000000
1!
1(
b00000010100111 /
#84000000000
0!
0(
#84250000000
1!
1(
b00000010101000 /
#84500000000
0!
0(
#84750000000
1!
1(
b00000010101001 /
#85000000000
0!
0(
#85250000000
1!
1(
b00000010101010 /
#85500000000
0!
0(
#85750000000
1!
1(
b00000010101011 /
#86000000000
0!
0(
#86250000000
1!
1(
b00000010101100 /
#86500000000
0!
0(
#86750000000
1!
1(
b00000010101101 /
#87000000000
0!
0(
#87250000000
1!
1(
b00000010101110 /
#87500000000
0!
0(
#87750000000
1!
1(
b00000010101111 /
#88000000000
0!
0(
#88250000000
1!
1(
b00000010110000 /
#88500000000
0!
0(
#88750000000
1!
1(
b00000010110001 /
#89000000000
0!
0(
#89250000000
1!
1(
b00000010110010 /
#89500000000
0!
0(
#89750000000
1!
1(
b00000010110011 /
#90000000000
0!
0(
#90250000000
1!
1(
b00000010110100 /
#90500000000
0!
0(
#90750000000
1!
1(
b00000010110101 /
#91000000000
0!
0(
#91250000000
1!
1(
b00000010110110 /
#91500000000
0!
0(
#91750000000
1!
1(
b00000010110111 /
#92000000000
0!
0(
#92250000000
1!
1(
b00000010111000 /
#92500000000
0!
0(
#92750000000
1!
1(
b00000010111001 /
#93000000000
0!
0(
#93250000000
1!
1(
b00000010111010 /
#93500000000
0!
0(
#93750000000
1!
1(
b00000010111011 /
#94000000000
0!
0(
#94250000000
1!
1(
b00000010111100 /
#94500000000
0!
0(
#94750000000
1!
1(
b00000010111101 /
#95000000000
0!
0(
#95250000000
1!
1(
b00000010111110 /
#95500000000
0!
0(
#95750000000
1!
1(
b00000010111111 /
#96000000000
0!
0(
#96250000000
1!
1(
b00000011000000 /
#96500000000
0!
0(
#96750000000
1!
1(
b00000011000001 /
#97000000000
0!
0(
#97250000000
1!
1(
b00000011000010 /
#97500000000
0!
0(
#97750000000
1!
1(
b00000011000011 /
#98000000000
0!
0(
#98250000000
1!
1(
b00000011000100 /
#98500000000
0!
0(
#98750000000
1!
1(
b00000011000101 /
#99000000000
0!
0(
#99250000000
1!
1(
b00000011000110 /
#99500000000
0!
0(
#99750000000
1!
1(
b00000011000111 /
#100000000000
0!
0(
#100250000000
1!
1(
b00000011001000 /
#100500000000
0!
0(
#100750000000
1!
1(
b00000011001001 /
#101000000000
0!
0(
#101250000000
1!
1(
b00000011001010 /
#101500000000
0!
0(
#101750000000
1!
1(
b00000011001011 /
#102000000000
0!
0(
#102250000000
1!
1(
b00000011001100 /
#102500000000
0!
0(
#102750000000
1!
1(
b00000011001101 /
#103000000000
0!
0(
#103250000000
1!
1(
b00000011001110 /
#103500000000
0!
0(
#103750000000
1!
1(
b00000011001111 /
#104000000000
0!
0(
#104250000000
1!
1(
b00000011010000 /
#104500000000
0!
0(
#104750000000
1!
1(
b00000011010001 /
#105000000000
0!
0(
#105250000000
1!
1(
b00000011010010 /
#105500000000
0!
0(
#105750000000
1!
1(
b00000011010011 /
#106000000000
0!
0(
#106250000000
1!
1(
b00000011010100 /
#106500000000
0!
0(
#106750000000
1!
1(
b00000011010101 /
#107000000000
0!
0(
#107250000000
1!
1(
b00000011010110 /
#107500000000
0!
0(
#107750000000
1!
1(
b00000011010111 /
#108000000000
0!
0(
#108250000000
1!
1(
b00000011011000 /
#108500000000
0!
0(
#108750000000
1!
1(
b00000011011001 /
#109000000000
0!
0(
#109250000000
1!
1(
b00000011011010 /
#109500000000
0!
0(
#109750000000
1!
1(
b00000011011011 /
#110000000000
0!
0(
#110250000000
1!
1(
b00000011011100 /
#110500000000
0!
0(
#110750000000
1!
1(
b00000011011101 /
#111000000000
0!
0(
#111250000000
1!
1(
b00000011011110 /
#111500000000
0!
0(
#111750000000
1!
1(
b00000011011111 /
#112000000000
0!
0(
#112250000000
1!
1(
b00000011100000 /
#112500000000
0!
0(
#112750000000
1!
1(
b00000011100001 /
#113000000000
0!
0(
#113250000000
1!
1(
b00000011100010 /
#113500000000
0!
0(
#113750000000
1!
1(
b00000011100011 /
#114000000000
0!
0(
#114250000000
1!
1(
b00000011100100 /
#114500000000
0!
0(
#114750000000
1!
1(
b00000011100101 /
#115000000000
0!
0(
#115250000000
1!
1(
b00000011100110 /
#115500000000
0!
0(
#115750000000
1!
1(
b00000011100111 /
#116000000000
0!
0(
#116250000000
1!
1(
b00000011101000 /
#116500000000
0!
0(
#116750000000
1!
1(
b00000011101001 /
#117000000000
0!
0(
#117250000000
1!
1(
b00000011101010 /
#117500000000
0!
0(
#117750000000
1!
1(
b00000011101011 /
#118000000000
0!
0(
#118250000000
1!
1(
b00000011101100 /
#118500000000
0!
0(
#118750000000
1!
1(
b00000011101101 /
#119000000000
0!
0(
#119250000000
1!
1(
b00000011101110 /
#119500000000
0!
0(
#119750000000
1!
1(
b00000011101111 /
#120000000000
0!
0(
#120250000000
1!
1(
b00000011110000 /
#120500000000
0!
0(
#120750000000
1!
1(
b00000011110001 /
#121000000000
0!
0(
#121250000000
1!
1(
b00000011110010 /
#121500000000
0!
0(
#121750000000
1!
1(
b00000011110011 /
#122000000000
0!
0(
#122250000000
1!
1(
b00000011110100 /
#122500000000
0!
0(
#122750000000
1!
1(
b00000011110101 /
#123000000000
0!
0(
#123250000000
1!
1(
b00000011110110 /
#123500000000
0!
0(
#123750000000
1!
1(
b00000011110111 /
#124000000000
0!
0(
#124250000000
1!
1(
b00000011111000 /
#124500000000
0!
0(
#124750000000
1!
1(
b00000011111001 /
#125000000000
0!
0(
#125250000000
1!
1(
b00000011111010 /
#125500000000
0!
0(
#125750000000
1!
1(
b00000011111011 /
#126000000000
0!
0(
#126250000000
1!
1(
b00000011111100 /
#126500000000
0!
0(
#126750000000
1!
1(
b00000011111101 /
#127000000000
0!
0(
#127250000000
1!
1(
b00000011111110 /
#127500000000
0!
0(
#127750000000
1!
1(
b00000011111111 /
#128000000000
0!
0(
#128250000000
1!
0"
1(
0)
b00000000000000 /
#128500000000
0!
0(
#128750000000
1!
1(
b00000000000001 0
#129000000000
0!
0(
#129250000000
1!
1(
b00000000000010 0
#129500000000
0!
0(
#129750000000
1!
1(
b00000000000011 0
#130000000000
0!
0(
#130250000000
1!
1(
b00000000000100 0
#130500000000
0!
0(
#130750000000
1!
1(
b00000000000101 0
#131000000000
0!
0(
#131250000000
1!
1(
b00000000000110 0
#131500000000
0!
0(
#131750000000
1!
1(
b00000000000111 0
#132000000000
0!
0(
#132250000000
1!
1(
b00000000001000 0
#132500000000
0!
0(
#132750000000
1!
1(
b00000000001001 0
#133000000000
0!
0(
#133250000000
1!
1(
b00000000001010 0
#133500000000
0!
0(
#133750000000
1!
1(
b00000000001011 0
#134000000000
0!
0(
#134250000000
1!
1(
b00000000001100 0
#134500000000
0!
0(
#134750000000
1!
1(
b00000000001101 0
#135000000000
0!
0(
#135250000000
1!
1(
b00000000001110 0
#135500000000
0!
0(
#135750000000
1!
1(
b00000000001111 0
#136000000000
0!
0(
#136250000000
1!
1(
b00000000010000 0
#136500000000
0!
0(
#136750000000
1!
1(
b00000000010001 0
#137000000000
0!
0(
#137250000000
1!
1(
b00000000010010 0
#137500000000
0!
0(
#137750000000
1!
1(
b00000000010011 0
#138000000000
0!
0(
#138250000000
1!
1(
b00000000010100 0
#138500000000
0!
0(
#138750000000
1!
1(
b00000000010101 0
#139000000000
0!
0(
#139250000000
1!
1(
b00000000010110 0
#139500000000
0!
0(
#139750000000
1!
1(
b00000000010111 0
#140000000000
0!
0(
#140250000000
1!
1(
b00000000011000 0
#140500000000
0!
0(
#140750000000
1!
1(
b00000000011001 0
#141000000000
0!
0(
#141250000000
1!
1(
b00000000011010 0
#141500000000
0!
0(
#141750000000
1!
1(
b00000000011011 0
#142000000000
0!
0(
#142250000000
1!
1(
b00000000011100 0
#142500000000
0!
0(
#142750000000
1!
1(
b00000000011101 0
#143000000000
0!
0(
#143250000000
1!
1(
b00000000011110 0
#143500000000
0!
0(
#143750000000
1!
1(
b00000000011111 0
#144000000000
0!
0(
#144250000000
1!
1(
b00000000100000 0
#144500000000
0!
0(
#144750000000
1!
1(
b00000000100001 0
#145000000000
0!
0(
#145250000000
1!
1(
b00000000100010 0
#145500000000
0!
0(
#145750000000
1!
1(
b00000000100011 0
#146000000000
0!
0(
#146250000000
1!
1(
b00000000100100 0
#146500000000
0!
0(
#146750000000
1!
1(
b00000000100101 0
#147000000000
0!
0(
#147250000000
1!
1(
b00000000100110 0
#147500000000
0!
0(
#147750000000
1!
1(
b00000000100111 0
#148000000000
0!
0(
#148250000000
1!
1(
b00000000101000 0
#148500000000
0!
0(
#148750000000
1!
1(
b00000000101001 0
#149000000000
0!
0(
#149250000000
1!
1(
b00000000101010 0
#149500000000
0!
0(
#149750000000
1!
1(
b00000000101011 0
#150000000000
0!
0(
#150250000000
1!
1(
b00000000101100 0
#150500000000
0!
0(
#150750000000
1!
1(
b00000000101101 0
#151000000000
0!
0(
#151250000000
1!
1(
b00000000101110 0
#151500000000
0!
0(
#151750000000
1!
1(
b00000000101111 0
#152000000000
0!
0(
#152250000000
1!
1(
b00000000110000 0
#152500000000
0!
0(
#152750000000
1!
1(
b00000000110001 0
#153000000000
0!
0(
#153250000000
1!
1(
b00000000110010 0
#153500000000
0!
0(
#153750000000
1!
1(
b00000000110011 0
#154000000000
0!
0(
#154250000000
1!
1(
b00000000110100 0
#154500000000
0!
0(
#154750000000
1!
1(
b00000000110101 0
#155000000000
0!
0(
#155250000000
1!
1(
b00000000110110 0
#155500000000
0!
0(
#155750000000
1!
1(
b00000000110111 0
#156000000000
0!
0(
#156250000000
1!
1(
b00000000111000 0
#156500000000
0!
0(
#156750000000
1!
1(
b00000000111001 0
#157000000000
0!
0(
#157250000000
1!
1(
b00000000111010 0
#157500000000
0!
0(
#157750000000
1!
1(
b00000000111011 0
#158000000000
0!
0(
#158250000000
1!
1(
b00000000111100 0
#158500000000
0!
0(
#158750000000
1!
1(
b00000000111101 0
#159000000000
0!
0(
#159250000000
1!
1(
b00000000111110 0
#159500000000
0!
0(
#159750000000
1!
1(
b00000000111111 0
#160000000000
0!
0(
#160250000000
1!
1(
b00000001000000 0
#160500000000
0!
0(
#160750000000
1!
1(
b00000001000001 0
#161000000000
0!
0(
#161250000000
1!
1(
b00000001000010 0
#161500000000
0!
0(
#161750000000
1!
1(
b00000001000011 0
#162000000000
0!
0(
#162250000000
1!
1(
b00000001000100 0
#162500000000
0!
0(
#162750000000
1!
1(
b00000001000101 0
#163000000000
0!
0(
#163250000000
1!
1(
b00000001000110 0
#163500000000
0!
0(
#163750000000
1!
1(
b00000001000111 0
#164000000000
0!
0(
#164250000000
1!
1(
b00000001001000 0
#164500000000
0!
0(
#164750000000
1!
1(
b00000001001001 0
#165000000000
0!
0(
#165250000000
1!
1(
b00000001001010 0
#165500000000
0!
0(
#165750000000
1!
1(
b00000001001011 0
#166000000000
0!
0(
#166250000000
1!
1(
b00000001001100 0
#166500000000
0!
0(
#166750000000
1!
1(
b00000001001101 0
#167000000000
0!
0(
#167250000000
1!
1(
b00000001001110 0
#167500000000
0!
0(
#167750000000
1!
1(
b00000001001111 0
#168000000000
0!
0(
#168250000000
1!
1(
b00000001010000 0
#168500000000
0!
0(
#168750000000
1!
1(
b00000001010001 0
#169000000000
0!
0(
#169250000000
1!
1(
b00000001010010 0
#169500000000
0!
0(
#169750000000
1!
1(
b00000001010011 0
#170000000000
0!
0(
#170250000000
1!
1(
b00000001010100 0
#170500000000
0!
0(
#170750000000
1!
1(
b00000001010101 0
#171000000000
0!
0(
#171250000000
1!
1(
b00000001010110 0
#171500000000
0!
0(
#171750000000
1!
1(
b00000001010111 0
#172000000000
0!
0(
#172250000000
1!
1(
b00000001011000 0
#172500000000
0!
0(
#172750000000
1!
1(
b00000001011001 0
#173000000000
0!
0(
#173250000000
1!
1(
b00000001011010 0
#173500000000
0!
0(
#173750000000
1!
1(
b00000001011011 0
#174000000000
0!
0(
#174250000000
1!
1(
b00000001011100 0
#174500000000
0!
0(
#174750000000
1!
1(
b00000001011101 0
#175000000000
0!
0(
#175250000000
1!
1(
b00000001011110 0
#175500000000
0!
0(
#175750000000
1!
1(
b00000001011111 0
#176000000000
0!
0(
#176250000000
1!
1(
b00000001100000 0
#176500000000
0!
0(
#176750000000
1!
1(
b00000001100001 0
#177000000000
0!
0(
#177250000000
1!
1(
b00000001100010 0
#177500000000
0!
0(
#177750000000
1!
1(
b00000001100011 0
#178000000000
0!
0(
#178250000000
1!
1(
b00000001100100 0
#178500000000
0!
0(
#178750000000
1!
1(
b00000001100101 0
#179000000000
0!
0(
#179250000000
1!
1(
b00000001100110 0
#179500000000
0!
0(
#179750000000
1!
1(
b00000001100111 0
#180000000000
0!
0(
#180250000000
1!
1(
b00000001101000 0
#180500000000
0!
0(
#180750000000
1!
1(
b00000001101001 0
#181000000000
0!
0(
#181250000000
1!
1(
b00000001101010 0
#181500000000
0!
0(
#181750000000
1!
1(
b00000001101011 0
#182000000000
0!
0(
#182250000000
1!
1(
b00000001101100 0
#182500000000
0!
0(
#182750000000
1!
1(
b00000001101101 0
#183000000000
0!
0(
#183250000000
1!
1(
b00000001101110 0
#183500000000
0!
0(
#183750000000
1!
1(
b00000001101111 0
#184000000000
0!
0(
#184250000000
1!
1(
b00000001110000 0
#184500000000
0!
0(
#184750000000
1!
1(
b00000001110001 0
#185000000000
0!
0(
#185250000000
1!
1(
b00000001110010 0
#185500000000
0!
0(
#185750000000
1!
1(
b00000001110011 0
#186000000000
0!
0(
#186250000000
1!
1(
b00000001110100 0
#186500000000
0!
0(
#186750000000
1!
1(
b00000001110101 0
#187000000000
0!
0(
#187250000000
1!
1(
b00000001110110 0
#187500000000
0!
0(
#187750000000
1!
1(
b00000001110111 0
#188000000000
0!
0(
#188250000000
1!
1(
b00000001111000 0
#188500000000
0!
0(
#188750000000
1!
1(
b00000001111001 0
#189000000000
0!
0(
#189250000000
1!
1(
b00000001111010 0
#189500000000
0!
0(
#189750000000
1!
1(
b00000001111011 0
#190000000000
0!
0(
#190250000000
1!
1(
b00000001111100 0
#190500000000
0!
0(
#190750000000
1!
1(
b00000001111101 0
#191000000000
0!
0(
#191250000000
1!
1(
b00000001111110 0
#191500000000
0!
0(
#191750000000
1!
1(
b00000001111111 0
#192000000000
0!
0(
#192250000000
1!
1(
b00000010000000 0
#192500000000
0!
0(
#192750000000
1!
1(
b00000010000001 0
#193000000000
0!
0(
#193250000000
1!
1(
b00000010000010 0
#193500000000
0!
0(
#193750000000
1!
1(
b00000010000011 0
#194000000000
0!
0(
#194250000000
1!
1(
b00000010000100 0
#194500000000
0!
0(
#194750000000
1!
1(
b00000010000101 0
#195000000000
0!
0(
#195250000000
1!
1(
b00000010000110 0
#195500000000
0!
0(
#195750000000
1!
1(
b00000010000111 0
#196000000000
0!
0(
#196250000000
1!
1(
b00000010001000 0
#196500000000
0!
0(
#196750000000
1!
1(
b00000010001001 0
#197000000000
0!
0(
#197250000000
1!
1(
b00000010001010 0
#197500000000
0!
0(
#197750000000
1!
1(
b00000010001011 0
#198000000000
0!
0(
#198250000000
1!
1(
b00000010001100 0
#198500000000
0!
0(
#198750000000
1!
1(
b00000010001101 0
#199000000000
0!
0(
#199250000000
1!
1(
b00000010001110 0
#199500000000
0!
0(
#199750000000
1!
1(
b00000010001111 0
#200000000000
0!
0(
#200250000000
1!
1(
b00000010010000 0
#200500000000
0!
0(
#200750000000
1!
1(
b00000010010001 0
#201000000000
0!
0(
#201250000000
1!
1(
b00000010010010 0
#201500000000
0!
0(
#201750000000
1!
1(
b00000010010011 0
#202000000000
0!
0(
#202250000000
1!
1(
b00000010010100 0
#202500000000
0!
0(
#202750000000
1!
1(
b00000010010101 0
#203000000000
0!
0(
#203250000000
1!
1(
b00000010010110 0
#203500000000
0!
0(
#203750000000
1!
1(
b00000010010111 0
#204000000000
0!
0(
#204250000000
1!
1(
b00000010011000 0
#204500000000
0!
0(
#204750000000
1!
1(
b00000010011001 0
#205000000000
0!
0(
#205250000000
1!
1(
b00000010011010 0
#205500000000
0!
0(
#205750000000
1!
1(
b00000010011011 0
#206000000000
0!
0(
#206250000000
1!
1(
b00000010011100 0
#206500000000
0!
0(
#206750000000
1!
1(
b00000010011101 0
#207000000000
0!
0(
#207250000000
1!
1(
b00000010011110 0
#207500000000
0!
0(
#207750000000
1!
1(
b00000010011111 0
#208000000000
0!
0(
#208250000000
1!
1(
b00000010100000 0
#208500000000
0!
0(
#208750000000
1!
1(
b00000010100001 0
#209000000000
0!
0(
#209250000000
1!
1(
b00000010100010 0
#209500000000
0!
0(
#209750000000
1!
1(
b00000010100011 0
#210000000000
0!
0(
#210250000000
1!
1(
b00000010100100 0
#210500000000
0!
0(
#210750000000
1!
1(
b00000010100101 0
#211000000000
0!
0(
#211250000000
1!
1(
b00000010100110 0
#211500000000
0!
0(
#211750000000
1!
1(
b00000010100111 0
#212000000000
0!
0(
#212250000000
1!
1(
b00000010101000 0
#212500000000
0!
0(
#212750000000
1!
1(
b00000010101001 0
#213000000000
0!
0(
#213250000000
1!
1(
b00000010101010 0
#213500000000
0!
0(
#213750000000
1!
1(
b00000010101011 0
#214000000000
0!
0(
#214250000000
1!
1(
b00000010101100 0
#214500000000
0!
0(
#214750000000
1!
1(
b00000010101101 0
#215000000000
0!
0(
#215250000000
1!
1(
b00000010101110 0
#215500000000
0!
0(
#215750000000
1!
1(
b00000010101111 0
#216000000000
0!
0(
#216250000000
1!
1(
b00000010110000 0
#216500000000
0!
0(
#216750000000
1!
1(
b00000010110001 0
#217000000000
0!
0(
#217250000000
1!
1(
b00000010110010 0
#217500000000
0!
0(
#217750000000
1!
1(
b00000010110011 0
#218000000000
0!
0(
#218250000000
1!
1(
b00000010110100 0
#218500000000
0!
0(
#218750000000
1!
1(
b00000010110101 0
#219000000000
0!
0(
